{
  "login": [
    {
      "userName": "kirti",
      "password": "kirti123"
    }
  ],
  
  "resturant": [
    {
      "name": "Dominoz",
      "email": "dominoz@gmail.com",
      "address": "Lucknow",
      "rating": "3",
      "id": 1
    },
    {
      "name": "Pizza Hut",
      "email": "Pizzahut@gmail.com",
      "address": "Mumbai",
      "rating": "4.3",
      "id": 2
    },
    {
      "name": "Greens",
      "email": "greens@yahoo.com",
      "address": "Delhi",
      "rating": "4",
      "id": 4
    },
    {
      "name": "Bicycle 22",
      "email": "naveen@physiz.com",
      "address": "Noida",
      "rating": "4",
      "id": 6
    }
  ]
}